[{"page":1,"pages":2,"per_page":50,"total":53,"sourceid":"2","lastupdated":"2023-12-18"},[{"indicator":{"id":"FP.CPI.TOTL.ZG","value":"Inflation, consumer prices (annual %)"},"country":{"id":"SE","value":"Sweden"},"countryiso3code":"SWE","date":"2022","value":8.36929098869189,"unit":"","obs_status":"","decimal":1},{"indicator":{"id":"FP.CPI.TOTL.ZG","value":"Inflation, consumer prices (annual %)"},"country":{"id":"SE","value":"Sweden"},"countryiso3code":"SWE","date":"2021","value":2.16319736447153,"unit":"","obs_status":"","decimal":1},{"indicator":{"id":"FP.CPI.TOTL.ZG","value":"Inflation, consumer prices (annual %)"},"country":{"id":"SE","value":"Sweden"},"countryiso3code":"SWE","date":"2020","value":0.497367318853572,"unit":"","obs_status":"","decimal":1},{"indicator":{"id":"FP.CPI.TOTL.ZG","value":"Inflation, consumer prices (annual %)"},"country":{"id":"SE","value":"Sweden"},"countryiso3code":"SWE","date":"2019","value":1.78415097403835,"unit":"","obs_status":"","decimal":1},{"indicator":{"id":"FP.CPI.TOTL.ZG","value":"Inflation, consumer prices (annual %)"},"country":{"id":"SE","value":"Sweden"},"countryiso3code":"SWE","date":"2018","value":1.95353530127028,"unit":"","obs_status":"","decimal":1},{"indicator":{"id":"FP.CPI.TOTL.ZG","value":"Inflation, consumer prices (annual %)"},"country":{"id":"SE","value":"Sweden"},"countryiso3code":"SWE","date":"2017","value":1.79449904665589,"unit":"","obs_status":"","decimal":1},{"indicator":{"id":"FP.CPI.TOTL.ZG","value":"Inflation, consumer prices (annual %)"},"country":{"id":"SE","value":"Sweden"},"countryiso3code":"SWE","date":"2016","value":0.984269244577992,"unit":"","obs_status":"","decimal":1},{"indicator":{"id":"FP.CPI.TOTL.ZG","value":"Inflation, consumer prices (annual %)"},"country":{"id":"SE","value":"Sweden"},"countryiso3code":"SWE","date":"2015","value":-0.0467847449832812,"unit":"","obs_status":"","decimal":1},{"indicator":{"id":"FP.CPI.TOTL.ZG","value":"Inflation, consumer prices (annual %)"},"country":{"id":"SE","value":"Sweden"},"countryiso3code":"SWE","date":"2014","value":-0.179638494114635,"unit":"","obs_status":"","decimal":1},{"indicator":{"id":"FP.CPI.TOTL.ZG","value":"Inflation, consumer prices (annual %)"},"country":{"id":"SE","value":"Sweden"},"countryiso3code":"SWE","date":"2013","value":-0.0442929701485858,"unit":"","obs_status":"","decimal":1},{"indicator":{"id":"FP.CPI.TOTL.ZG","value":"Inflation, consumer prices (annual %)"},"country":{"id":"SE","value":"Sweden"},"countryiso3code":"SWE","date":"2012","value":0.888377506923638,"unit":"","obs_status":"","decimal":1},{"indicator":{"id":"FP.CPI.TOTL.ZG","value":"Inflation, consumer prices (annual %)"},"country":{"id":"SE","value":"Sweden"},"countryiso3code":"SWE","date":"2011","value":2.9611507382214,"unit":"","obs_status":"","decimal":1},{"indicator":{"id":"FP.CPI.TOTL.ZG","value":"Inflation, consumer prices (annual %)"},"country":{"id":"SE","value":"Sweden"},"countryiso3code":"SWE","date":"2010","value":1.15798802715628,"unit":"","obs_status":"","decimal":1},{"indicator":{"id":"FP.CPI.TOTL.ZG","value":"Inflation, consumer prices (annual %)"},"country":{"id":"SE","value":"Sweden"},"countryiso3code":"SWE","date":"2009","value":-0.494460544377991,"unit":"","obs_status":"","decimal":1},{"indicator":{"id":"FP.CPI.TOTL.ZG","value":"Inflation, consumer prices (annual %)"},"country":{"id":"SE","value":"Sweden"},"countryiso3code":"SWE","date":"2008","value":3.43704910602874,"unit":"","obs_status":"","decimal":1},{"indicator":{"id":"FP.CPI.TOTL.ZG","value":"Inflation, consumer prices (annual %)"},"country":{"id":"SE","value":"Sweden"},"countryiso3code":"SWE","date":"2007","value":2.21216883436735,"unit":"","obs_status":"","decimal":1},{"indicator":{"id":"FP.CPI.TOTL.ZG","value":"Inflation, consumer prices (annual %)"},"country":{"id":"SE","value":"Sweden"},"countryiso3code":"SWE","date":"2006","value":1.3602146862768,"unit":"","obs_status":"","decimal":1},{"indicator":{"id":"FP.CPI.TOTL.ZG","value":"Inflation, consumer prices (annual %)"},"country":{"id":"SE","value":"Sweden"},"countryiso3code":"SWE","date":"2005","value":0.453170852576182,"unit":"","obs_status":"","decimal":1},{"indicator":{"id":"FP.CPI.TOTL.ZG","value":"Inflation, consumer prices (annual %)"},"country":{"id":"SE","value":"Sweden"},"countryiso3code":"SWE","date":"2004","value":0.373659828721813,"unit":"","obs_status":"","decimal":1},{"indicator":{"id":"FP.CPI.TOTL.ZG","value":"Inflation, consumer prices (annual %)"},"country":{"id":"SE","value":"Sweden"},"countryiso3code":"SWE","date":"2003","value":1.92565534892391,"unit":"","obs_status":"","decimal":1},{"indicator":{"id":"FP.CPI.TOTL.ZG","value":"Inflation, consumer prices (annual %)"},"country":{"id":"SE","value":"Sweden"},"countryiso3code":"SWE","date":"2002","value":2.15848213589264,"unit":"","obs_status":"","decimal":1},{"indicator":{"id":"FP.CPI.TOTL.ZG","value":"Inflation, consumer prices (annual %)"},"country":{"id":"SE","value":"Sweden"},"countryiso3code":"SWE","date":"2001","value":2.40595834145438,"unit":"","obs_status":"","decimal":1},{"indicator":{"id":"FP.CPI.TOTL.ZG","value":"Inflation, consumer prices (annual %)"},"country":{"id":"SE","value":"Sweden"},"countryiso3code":"SWE","date":"2000","value":0.899143734041633,"unit":"","obs_status":"","decimal":1},{"indicator":{"id":"FP.CPI.TOTL.ZG","value":"Inflation, consumer prices (annual %)"},"country":{"id":"SE","value":"Sweden"},"countryiso3code":"SWE","date":"1999","value":0.462175756339173,"unit":"","obs_status":"","decimal":1},{"indicator":{"id":"FP.CPI.TOTL.ZG","value":"Inflation, consumer prices (annual %)"},"country":{"id":"SE","value":"Sweden"},"countryiso3code":"SWE","date":"1998","value":-0.267132668355006,"unit":"","obs_status":"","decimal":1},{"indicator":{"id":"FP.CPI.TOTL.ZG","value":"Inflation, consumer prices (annual %)"},"country":{"id":"SE","value":"Sweden"},"countryiso3code":"SWE","date":"1997","value":0.658410256243514,"unit":"","obs_status":"","decimal":1},{"indicator":{"id":"FP.CPI.TOTL.ZG","value":"Inflation, consumer prices (annual %)"},"country":{"id":"SE","value":"Sweden"},"countryiso3code":"SWE","date":"1996","value":0.533131978766297,"unit":"","obs_status":"","decimal":1},{"indicator":{"id":"FP.CPI.TOTL.ZG","value":"Inflation, consumer prices (annual %)"},"country":{"id":"SE","value":"Sweden"},"countryiso3code":"SWE","date":"1995","value":2.45514857818395,"unit":"","obs_status":"","decimal":1},{"indicator":{"id":"FP.CPI.TOTL.ZG","value":"Inflation, consumer prices (annual %)"},"country":{"id":"SE","value":"Sweden"},"countryiso3code":"SWE","date":"1994","value":2.15813800724632,"unit":"","obs_status":"","decimal":1},{"indicator":{"id":"FP.CPI.TOTL.ZG","value":"Inflation, consumer prices (annual %)"},"country":{"id":"SE","value":"Sweden"},"countryiso3code":"SWE","date":"1993","value":4.72817304626053,"unit":"","obs_status":"","decimal":1},{"indicator":{"id":"FP.CPI.TOTL.ZG","value":"Inflation, consumer prices (annual %)"},"country":{"id":"SE","value":"Sweden"},"countryiso3code":"SWE","date":"1992","value":2.3743672511188,"unit":"","obs_status":"","decimal":1},{"indicator":{"id":"FP.CPI.TOTL.ZG","value":"Inflation, consumer prices (annual %)"},"country":{"id":"SE","value":"Sweden"},"countryiso3code":"SWE","date":"1991","value":9.4446273294419,"unit":"","obs_status":"","decimal":1},{"indicator":{"id":"FP.CPI.TOTL.ZG","value":"Inflation, consumer prices (annual %)"},"country":{"id":"SE","value":"Sweden"},"countryiso3code":"SWE","date":"1990","value":10.3665533879493,"unit":"","obs_status":"","decimal":1},{"indicator":{"id":"FP.CPI.TOTL.ZG","value":"Inflation, consumer prices (annual %)"},"country":{"id":"SE","value":"Sweden"},"countryiso3code":"SWE","date":"1989","value":6.4432758742661,"unit":"","obs_status":"","decimal":1},{"indicator":{"id":"FP.CPI.TOTL.ZG","value":"Inflation, consumer prices (annual %)"},"country":{"id":"SE","value":"Sweden"},"countryiso3code":"SWE","date":"1988","value":5.82489868439437,"unit":"","obs_status":"","decimal":1},{"indicator":{"id":"FP.CPI.TOTL.ZG","value":"Inflation, consumer prices (annual %)"},"country":{"id":"SE","value":"Sweden"},"countryiso3code":"SWE","date":"1987","value":4.18857151771368,"unit":"","obs_status":"","decimal":1},{"indicator":{"id":"FP.CPI.TOTL.ZG","value":"Inflation, consumer prices (annual %)"},"country":{"id":"SE","value":"Sweden"},"countryiso3code":"SWE","date":"1986","value":4.23591011089793,"unit":"","obs_status":"","decimal":1},{"indicator":{"id":"FP.CPI.TOTL.ZG","value":"Inflation, consumer prices (annual %)"},"country":{"id":"SE","value":"Sweden"},"countryiso3code":"SWE","date":"1985","value":7.37257458126246,"unit":"","obs_status":"","decimal":1},{"indicator":{"id":"FP.CPI.TOTL.ZG","value":"Inflation, consumer prices (annual %)"},"country":{"id":"SE","value":"Sweden"},"countryiso3code":"SWE","date":"1984","value":8.04424238994422,"unit":"","obs_status":"","decimal":1},{"indicator":{"id":"FP.CPI.TOTL.ZG","value":"Inflation, consumer prices (annual %)"},"country":{"id":"SE","value":"Sweden"},"countryiso3code":"SWE","date":"1983","value":8.87302152363213,"unit":"","obs_status":"","decimal":1},{"indicator":{"id":"FP.CPI.TOTL.ZG","value":"Inflation, consumer prices (annual %)"},"country":{"id":"SE","value":"Sweden"},"countryiso3code":"SWE","date":"1982","value":8.58918509047123,"unit":"","obs_status":"","decimal":1},{"indicator":{"id":"FP.CPI.TOTL.ZG","value":"Inflation, consumer prices (annual %)"},"country":{"id":"SE","value":"Sweden"},"countryiso3code":"SWE","date":"1981","value":12.1039385302598,"unit":"","obs_status":"","decimal":1},{"indicator":{"id":"FP.CPI.TOTL.ZG","value":"Inflation, consumer prices (annual %)"},"country":{"id":"SE","value":"Sweden"},"countryiso3code":"SWE","date":"1980","value":13.7063223649005,"unit":"","obs_status":"","decimal":1},{"indicator":{"id":"FP.CPI.TOTL.ZG","value":"Inflation, consumer prices (annual %)"},"country":{"id":"SE","value":"Sweden"},"countryiso3code":"SWE","date":"1979","value":7.20978617047808,"unit":"","obs_status":"","decimal":1},{"indicator":{"id":"FP.CPI.TOTL.ZG","value":"Inflation, consumer prices (annual %)"},"country":{"id":"SE","value":"Sweden"},"countryiso3code":"SWE","date":"1978","value":9.99526541717732,"unit":"","obs_status":"","decimal":1},{"indicator":{"id":"FP.CPI.TOTL.ZG","value":"Inflation, consumer prices (annual %)"},"country":{"id":"SE","value":"Sweden"},"countryiso3code":"SWE","date":"1977","value":11.4418051091077,"unit":"","obs_status":"","decimal":1},{"indicator":{"id":"FP.CPI.TOTL.ZG","value":"Inflation, consumer prices (annual %)"},"country":{"id":"SE","value":"Sweden"},"countryiso3code":"SWE","date":"1976","value":10.2492246529784,"unit":"","obs_status":"","decimal":1},{"indicator":{"id":"FP.CPI.TOTL.ZG","value":"Inflation, consumer prices (annual %)"},"country":{"id":"SE","value":"Sweden"},"countryiso3code":"SWE","date":"1975","value":9.77987398822576,"unit":"","obs_status":"","decimal":1},{"indicator":{"id":"FP.CPI.TOTL.ZG","value":"Inflation, consumer prices (annual %)"},"country":{"id":"SE","value":"Sweden"},"countryiso3code":"SWE","date":"1974","value":9.91172530113238,"unit":"","obs_status":"","decimal":1},{"indicator":{"id":"FP.CPI.TOTL.ZG","value":"Inflation, consumer prices (annual %)"},"country":{"id":"SE","value":"Sweden"},"countryiso3code":"SWE","date":"1973","value":6.71799739819354,"unit":"","obs_status":"","decimal":1}]]